{
  "reels": [
    {
      "id": "cmn9gf1yf000j26sglgopx1o4",
      "title": "Take a bow, Sakamoto Kaori. 🙇🙇‍♀️🙇‍♂️ #FigureSkating #WorldFigure",
      "videoUrl": "https://www.youtube.com/embed/flv5AhaAYLI",
      "thumbnailUrl": "https://img.youtube.com/vi/flv5AhaAYLI/mqdefault.jpg",
      "source": "Olympics",
      "sport": "athletics",
      "team": null,
      "minAge": 6,
      "maxAge": 14,
      "durationSeconds": 60,
      "videoType": "youtube_embed",
      "aspectRatio": "16:9",
      "previewGifUrl": null,
      "rssGuid": "yt:video:flv5AhaAYLI",
      "videoSourceId": "cmn96ggkz002m2657umntnalf",
      "safetyStatus": "approved",
      "safetyReason": "auto-approved: AI unavailable",
      "moderatedAt": "2026-03-27T22:09:35.655Z",
      "publishedAt": "2026-03-27T22:06:17.000Z",
      "createdAt": "2026-03-27T22:09:35.656Z"
    },
    {
      "id": "cmn9e5kgj001926ue2m0ow6qb",
      "title": "Football training session",
      "videoUrl": "https://videos.pexels.com/video-files/3191572/3191572-sd_640_360_25fps.mp4",
      "thumbnailUrl": "https://images.pexels.com/videos/3191572/free-video-3191572.jpg?w=400",
      "source": "Pexels",
      "sport": "football",
      "team": null,
      "minAge": 6,
      "maxAge": 14,
      "durationSeconds": 15,
      "videoType": "mp4",
      "aspectRatio": "16:9",
      "previewGifUrl": null,
      "rssGuid": null,
      "videoSourceId": null,
      "safetyStatus": "approved",
      "safetyReason": null,
      "moderatedAt": null,
      "publishedAt": "2026-03-27T21:07:08.531Z",
      "createdAt": "2026-03-27T21:06:13.844Z"
    },
    {
      "id": "cmn9e5kgl001a26uep5k10wsw",
      "title": "Basketball slam dunk",
      "videoUrl": "https://videos.pexels.com/video-files/4761556/4761556-sd_640_360_25fps.mp4",
      "thumbnailUrl": "https://images.pexels.com/videos/4761556/free-video-4761556.jpg?w=400",
      "source": "Pexels",
      "sport": "basketball",
      "team": null,
      "minAge": 6,
      "maxAge": 14,
      "durationSeconds": 12,
      "videoType": "mp4",
      "aspectRatio": "16:9",
      "previewGifUrl": null,
      "rssGuid": null,
      "videoSourceId": null,
      "safetyStatus": "approved",
      "safetyReason": null,
      "moderatedAt": null,
      "publishedAt": "2026-03-27T21:07:08.531Z",
      "createdAt": "2026-03-27T21:06:13.845Z"
    },
    {
      "id": "cmn9e5kgm001b26ue4cgsxcxs",
      "title": "Tennis practice rally",
      "videoUrl": "https://videos.pexels.com/video-files/5067588/5067588-sd_640_360_25fps.mp4",
      "thumbnailUrl": "https://images.pexels.com/videos/5067588/free-video-5067588.jpg?w=400",
      "source": "Pexels",
      "sport": "tennis",
      "team": null,
      "minAge": 6,
      "maxAge": 14,
      "durationSeconds": 18,
      "videoType": "mp4",
      "aspectRatio": "16:9",
      "previewGifUrl": null,
      "rssGuid": null,
      "videoSourceId": null,
      "safetyStatus": "approved",
      "safetyReason": null,
      "moderatedAt": null,
      "publishedAt": "2026-03-27T21:07:08.531Z",
      "createdAt": "2026-03-27T21:06:13.847Z"
    },
    {
      "id": "cmn9e5kgn001c26ueohswgclo",
      "title": "Swimming freestyle technique",
      "videoUrl": "https://videos.pexels.com/video-files/4761480/4761480-sd_640_360_25fps.mp4",
      "thumbnailUrl": "https://images.pexels.com/videos/4761480/free-video-4761480.jpg?w=400",
      "source": "Pexels",
      "sport": "swimming",
      "team": null,
      "minAge": 6,
      "maxAge": 14,
      "durationSeconds": 10,
      "videoType": "mp4",
      "aspectRatio": "16:9",
      "previewGifUrl": null,
      "rssGuid": null,
      "videoSourceId": null,
      "safetyStatus": "approved",
      "safetyReason": null,
      "moderatedAt": null,
      "publishedAt": "2026-03-27T21:07:08.531Z",
      "createdAt": "2026-03-27T21:06:13.848Z"
    },
    {
      "id": "cmn9e5kgo001d26uexivrbvvh",
      "title": "Cycling mountain road",
      "videoUrl": "https://videos.pexels.com/video-files/4889152/4889152-sd_640_360_25fps.mp4",
      "thumbnailUrl": "https://images.pexels.com/videos/4889152/free-video-4889152.jpg?w=400",
      "source": "Pexels",
      "sport": "cycling",
      "team": null,
      "minAge": 6,
      "maxAge": 14,
      "durationSeconds": 20,
      "videoType": "mp4",
      "aspectRatio": "16:9",
      "previewGifUrl": null,
      "rssGuid": null,
      "videoSourceId": null,
      "safetyStatus": "approved",
      "safetyReason": null,
      "moderatedAt": null,
      "publishedAt": "2026-03-27T21:07:08.531Z",
      "createdAt": "2026-03-27T21:06:13.849Z"
    },
    {
      "id": "cmn9e5kgp001e26ued5qojkjy",
      "title": "Running on track",
      "videoUrl": "https://videos.pexels.com/video-files/3209245/3209245-sd_640_360_25fps.mp4",
      "thumbnailUrl": "https://images.pexels.com/videos/3209245/free-video-3209245.jpg?w=400",
      "source": "Pexels",
      "sport": "athletics",
      "team": null,
      "minAge": 6,
      "maxAge": 14,
      "durationSeconds": 14,
      "videoType": "mp4",
      "aspectRatio": "16:9",
      "previewGifUrl": null,
      "rssGuid": null,
      "videoSourceId": null,
      "safetyStatus": "approved",
      "safetyReason": null,
      "moderatedAt": null,
      "publishedAt": "2026-03-27T21:07:08.531Z",
      "createdAt": "2026-03-27T21:06:13.850Z"
    },
    {
      "id": "cmn9e6una000126qd1lqfz3zy",
      "title": "Thank you, Mikael! A true Olympic legend. ❤️‍🔥#Olympics #FreestyleSkiing",
      "videoUrl": "https://www.youtube.com/embed/oXjEvh50fws",
      "thumbnailUrl": "https://img.youtube.com/vi/oXjEvh50fws/mqdefault.jpg",
      "source": "Olympics",
      "sport": "athletics",
      "team": null,
      "minAge": 6,
      "maxAge": 14,
      "durationSeconds": 60,
      "videoType": "youtube_embed",
      "aspectRatio": "16:9",
      "previewGifUrl": null,
      "rssGuid": "yt:video:oXjEvh50fws",
      "videoSourceId": "cmn96ggkz002m2657umntnalf",
      "safetyStatus": "approved",
      "safetyReason": "auto-approved: AI unavailable",
      "moderatedAt": "2026-03-27T21:07:13.702Z",
      "publishedAt": "2026-03-27T20:57:57.000Z",
      "createdAt": "2026-03-27T21:07:13.702Z"
    },
    {
      "id": "cmn9cm1hz000c260fhrp9rlzz",
      "title": "Still not over this. 😌 #Olympics #Athletics",
      "videoUrl": "https://www.youtube.com/embed/di2cPnECW68",
      "thumbnailUrl": "https://img.youtube.com/vi/di2cPnECW68/mqdefault.jpg",
      "source": "Olympics",
      "sport": "athletics",
      "team": null,
      "minAge": 6,
      "maxAge": 14,
      "durationSeconds": 60,
      "videoType": "youtube_embed",
      "aspectRatio": "16:9",
      "previewGifUrl": null,
      "rssGuid": "yt:video:di2cPnECW68",
      "videoSourceId": "cmn96ggkz002m2657umntnalf",
      "safetyStatus": "approved",
      "safetyReason": "auto-approved: AI unavailable",
      "moderatedAt": "2026-03-27T20:23:03.191Z",
      "publishedAt": "2026-03-27T20:01:00.000Z",
      "createdAt": "2026-03-27T20:23:03.192Z"
    },
    {
      "id": "cmn9clo6n0001260f91qosfml",
      "title": "Define aura. #shorts #fcbarcelona #football",
      "videoUrl": "https://www.youtube.com/embed/ySzAJO2A2Qw",
      "thumbnailUrl": "https://img.youtube.com/vi/ySzAJO2A2Qw/mqdefault.jpg",
      "source": "FC Barcelona",
      "sport": "football",
      "team": "Barcelona",
      "minAge": 6,
      "maxAge": 14,
      "durationSeconds": 60,
      "videoType": "youtube_embed",
      "aspectRatio": "16:9",
      "previewGifUrl": null,
      "rssGuid": "yt:video:ySzAJO2A2Qw",
      "videoSourceId": "cmn96ggk400292657buz6v6fk",
      "safetyStatus": "approved",
      "safetyReason": "auto-approved: AI unavailable",
      "moderatedAt": "2026-03-27T20:22:45.935Z",
      "publishedAt": "2026-03-27T20:00:43.000Z",
      "createdAt": "2026-03-27T20:22:45.936Z"
    },
    {
      "id": "cmn9cm1i2000d260fua8dollb",
      "title": "German Bobsleigh Legend 🇩🇪🥈 Francesco Friedrich | Athlete Highlights | #MilanoCortina2026",
      "videoUrl": "https://www.youtube.com/embed/H0V_05Ul5aY",
      "thumbnailUrl": "https://img.youtube.com/vi/H0V_05Ul5aY/mqdefault.jpg",
      "source": "Olympics",
      "sport": "athletics",
      "team": null,
      "minAge": 6,
      "maxAge": 14,
      "durationSeconds": 60,
      "videoType": "youtube_embed",
      "aspectRatio": "16:9",
      "previewGifUrl": null,
      "rssGuid": "yt:video:H0V_05Ul5aY",
      "videoSourceId": "cmn96ggkz002m2657umntnalf",
      "safetyStatus": "approved",
      "safetyReason": "auto-approved: AI unavailable",
      "moderatedAt": "2026-03-27T20:23:03.194Z",
      "publishedAt": "2026-03-27T19:00:10.000Z",
      "createdAt": "2026-03-27T20:23:03.195Z"
    },
    {
      "id": "cmn97zl7t0001264izz3hrf4h",
      "title": "🔵🔴 BARÇA NOTÍCIES (27 de març) L'actualitat en 3 minuts. #shorts #fcbarcelona #news #shortvideo",
      "videoUrl": "https://www.youtube.com/embed/3HU-URB-Zc8",
      "thumbnailUrl": "https://img.youtube.com/vi/3HU-URB-Zc8/mqdefault.jpg",
      "source": "FC Barcelona",
      "sport": "football",
      "team": "Barcelona",
      "minAge": 6,
      "maxAge": 14,
      "durationSeconds": 60,
      "videoType": "youtube_embed",
      "aspectRatio": "16:9",
      "previewGifUrl": null,
      "rssGuid": "yt:video:3HU-URB-Zc8",
      "videoSourceId": "cmn96ggk400292657buz6v6fk",
      "safetyStatus": "approved",
      "safetyReason": "auto-approved: AI unavailable",
      "moderatedAt": "2026-03-27T18:13:37.193Z",
      "publishedAt": "2026-03-27T17:48:56.000Z",
      "createdAt": "2026-03-27T18:13:37.194Z"
    },
    {
      "id": "cmn979xa6002326vszs7o3nt1",
      "title": "🗣️ \"I love Czech racers.\" 🥹",
      "videoUrl": "https://www.youtube.com/embed/4P95OdzE1p8",
      "thumbnailUrl": "https://img.youtube.com/vi/4P95OdzE1p8/mqdefault.jpg",
      "source": "Olympics",
      "sport": "athletics",
      "team": null,
      "minAge": 6,
      "maxAge": 14,
      "durationSeconds": 60,
      "videoType": "youtube_embed",
      "aspectRatio": "16:9",
      "previewGifUrl": null,
      "rssGuid": "yt:video:4P95OdzE1p8",
      "videoSourceId": "cmn96ggkz002m2657umntnalf",
      "safetyStatus": "approved",
      "safetyReason": "auto-approved: AI unavailable",
      "moderatedAt": "2026-03-27T17:53:39.774Z",
      "publishedAt": "2026-03-27T17:38:10.000Z",
      "createdAt": "2026-03-27T17:53:39.774Z"
    },
    {
      "id": "cmn96ihzy001y26vsyoyur31b",
      "title": "Jordan Pickford Saves But They Keep Getting Better 🫨",
      "videoUrl": "https://www.youtube.com/embed/UFrNWCrEzxo",
      "thumbnailUrl": "https://img.youtube.com/vi/UFrNWCrEzxo/mqdefault.jpg",
      "source": "Premier League",
      "sport": "football",
      "team": null,
      "minAge": 6,
      "maxAge": 14,
      "durationSeconds": 60,
      "videoType": "youtube_embed",
      "aspectRatio": "16:9",
      "previewGifUrl": null,
      "rssGuid": "yt:video:UFrNWCrEzxo",
      "videoSourceId": "cmn96ggka002b2657q118ec35",
      "safetyStatus": "approved",
      "safetyReason": "auto-approved: AI unavailable",
      "moderatedAt": "2026-03-27T17:32:20.254Z",
      "publishedAt": "2026-03-27T17:15:00.000Z",
      "createdAt": "2026-03-27T17:32:20.255Z"
    },
    {
      "id": "cmn96hnry001126vs9omi7qtv",
      "title": "His reaction is too real 🤣 (via melocoston/IG)",
      "videoUrl": "https://www.youtube.com/embed/5NTNuLEOpdI",
      "thumbnailUrl": "https://img.youtube.com/vi/5NTNuLEOpdI/mqdefault.jpg",
      "source": "NBA",
      "sport": "basketball",
      "team": null,
      "minAge": 6,
      "maxAge": 14,
      "durationSeconds": 60,
      "videoType": "youtube_embed",
      "aspectRatio": "16:9",
      "previewGifUrl": null,
      "rssGuid": "yt:video:5NTNuLEOpdI",
      "videoSourceId": "cmn96ggkd002d2657g65i9tux",
      "safetyStatus": "approved",
      "safetyReason": "auto-approved: AI unavailable",
      "moderatedAt": "2026-03-27T17:31:41.086Z",
      "publishedAt": "2026-03-27T17:01:02.000Z",
      "createdAt": "2026-03-27T17:31:41.086Z"
    },
    {
      "id": "cmn96hw3i001g26vs05jachze",
      "title": "One for the history books!",
      "videoUrl": "https://www.youtube.com/embed/edqqMGvrnJ0",
      "thumbnailUrl": "https://img.youtube.com/vi/edqqMGvrnJ0/mqdefault.jpg",
      "source": "Olympics",
      "sport": "athletics",
      "team": null,
      "minAge": 6,
      "maxAge": 14,
      "durationSeconds": 60,
      "videoType": "youtube_embed",
      "aspectRatio": "16:9",
      "previewGifUrl": null,
      "rssGuid": "yt:video:edqqMGvrnJ0",
      "videoSourceId": "cmn96ggkz002m2657umntnalf",
      "safetyStatus": "approved",
      "safetyReason": "auto-approved: AI unavailable",
      "moderatedAt": "2026-03-27T17:31:51.870Z",
      "publishedAt": "2026-03-27T15:12:45.000Z",
      "createdAt": "2026-03-27T17:31:51.871Z"
    },
    {
      "id": "cmn96hw3m001h26vs36a1xj4q",
      "title": "Women's Halfpipe Final - Snowboard 🏂🥇 | Milano Cortina 2026 | Full Replays",
      "videoUrl": "https://www.youtube.com/embed/cSEpfCFthoE",
      "thumbnailUrl": "https://img.youtube.com/vi/cSEpfCFthoE/mqdefault.jpg",
      "source": "Olympics",
      "sport": "athletics",
      "team": null,
      "minAge": 6,
      "maxAge": 14,
      "durationSeconds": 60,
      "videoType": "youtube_embed",
      "aspectRatio": "16:9",
      "previewGifUrl": null,
      "rssGuid": "yt:video:cSEpfCFthoE",
      "videoSourceId": "cmn96ggkz002m2657umntnalf",
      "safetyStatus": "approved",
      "safetyReason": "auto-approved: AI unavailable",
      "moderatedAt": "2026-03-27T17:31:51.874Z",
      "publishedAt": "2026-03-27T15:00:41.000Z",
      "createdAt": "2026-03-27T17:31:51.875Z"
    },
    {
      "id": "cmn96hlv4000m26vsa36ci71z",
      "title": "Did You Miss These Premier League Moments So Far In 2026",
      "videoUrl": "https://www.youtube.com/embed/VzPAbcX_lAc",
      "thumbnailUrl": "https://img.youtube.com/vi/VzPAbcX_lAc/mqdefault.jpg",
      "source": "Premier League",
      "sport": "football",
      "team": null,
      "minAge": 6,
      "maxAge": 14,
      "durationSeconds": 60,
      "videoType": "youtube_embed",
      "aspectRatio": "16:9",
      "previewGifUrl": null,
      "rssGuid": "yt:video:VzPAbcX_lAc",
      "videoSourceId": "cmn96ggka002b2657q118ec35",
      "safetyStatus": "approved",
      "safetyReason": "auto-approved: AI unavailable",
      "moderatedAt": "2026-03-27T17:31:38.608Z",
      "publishedAt": "2026-03-27T14:01:00.000Z",
      "createdAt": "2026-03-27T17:31:38.608Z"
    },
    {
      "id": "cmn96hw3q001i26vse5ix76ix",
      "title": "A forever favourite by Guillaume Cizeron and Laurence Fournier Beaudry at #MilanoCortina2026. ❤️‍🔥",
      "videoUrl": "https://www.youtube.com/embed/bH8pm5lsuO8",
      "thumbnailUrl": "https://img.youtube.com/vi/bH8pm5lsuO8/mqdefault.jpg",
      "source": "Olympics",
      "sport": "athletics",
      "team": null,
      "minAge": 6,
      "maxAge": 14,
      "durationSeconds": 60,
      "videoType": "youtube_embed",
      "aspectRatio": "16:9",
      "previewGifUrl": null,
      "rssGuid": "yt:video:bH8pm5lsuO8",
      "videoSourceId": "cmn96ggkz002m2657umntnalf",
      "safetyStatus": "approved",
      "safetyReason": "auto-approved: AI unavailable",
      "moderatedAt": "2026-03-27T17:31:51.878Z",
      "publishedAt": "2026-03-27T13:16:05.000Z",
      "createdAt": "2026-03-27T17:31:51.879Z"
    },
    {
      "id": "cmn96hlv8000n26vsyz1vjo97",
      "title": "Hugo Ekitike Leaves Defenders Behind 🫨",
      "videoUrl": "https://www.youtube.com/embed/pJItumRKneQ",
      "thumbnailUrl": "https://img.youtube.com/vi/pJItumRKneQ/mqdefault.jpg",
      "source": "Premier League",
      "sport": "football",
      "team": null,
      "minAge": 6,
      "maxAge": 14,
      "durationSeconds": 60,
      "videoType": "youtube_embed",
      "aspectRatio": "16:9",
      "previewGifUrl": null,
      "rssGuid": "yt:video:pJItumRKneQ",
      "videoSourceId": "cmn96ggka002b2657q118ec35",
      "safetyStatus": "approved",
      "safetyReason": "auto-approved: AI unavailable",
      "moderatedAt": "2026-03-27T17:31:38.611Z",
      "publishedAt": "2026-03-27T13:15:00.000Z",
      "createdAt": "2026-03-27T17:31:38.612Z"
    }
  ],
  "total": 84,
  "page": 1,
  "totalPages": 5
}