{
  "reels": [
    {
      "id": "cmn54p09u001i26o6ddmjkbbw",
      "title": "Atletismo 100 metros planos",
      "videoUrl": "https://www.youtube.com/embed/KNA7gdXzFD4",
      "thumbnailUrl": "",
      "source": "YouTube",
      "sport": "athletics",
      "team": null,
      "minAge": 6,
      "maxAge": 14,
      "durationSeconds": 120,
      "videoType": "youtube_embed",
      "aspectRatio": "16:9",
      "previewGifUrl": null,
      "createdAt": "2026-03-24T21:30:19.939Z"
    },
    {
      "id": "cmn54p09t001h26o67qrz0lq5",
      "title": "Usain Bolt 9.58 — Récord mundial 100m",
      "videoUrl": "https://www.youtube.com/embed/3nbjhpcZ9_g",
      "thumbnailUrl": "",
      "source": "World Athletics",
      "sport": "athletics",
      "team": null,
      "minAge": 6,
      "maxAge": 14,
      "durationSeconds": 45,
      "videoType": "youtube_embed",
      "aspectRatio": "16:9",
      "previewGifUrl": null,
      "createdAt": "2026-03-24T21:30:19.938Z"
    },
    {
      "id": "cmn54p09s001g26o6juvqzg5g",
      "title": "Los mejores puntos de Padel 2025",
      "videoUrl": "https://www.youtube.com/embed/gFl3ADnFRtc",
      "thumbnailUrl": "",
      "source": "Premier Padel",
      "sport": "padel",
      "team": null,
      "minAge": 6,
      "maxAge": 14,
      "durationSeconds": 240,
      "videoType": "youtube_embed",
      "aspectRatio": "16:9",
      "previewGifUrl": null,
      "createdAt": "2026-03-24T21:30:19.937Z"
    },
    {
      "id": "cmn54p09s001f26o6hgiaozqt",
      "title": "Cómo funciona el Tour de Francia",
      "videoUrl": "https://www.youtube.com/embed/IDd00owMIP4",
      "thumbnailUrl": "",
      "source": "GCN",
      "sport": "cycling",
      "team": null,
      "minAge": 6,
      "maxAge": 14,
      "durationSeconds": 300,
      "videoType": "youtube_embed",
      "aspectRatio": "16:9",
      "previewGifUrl": null,
      "createdAt": "2026-03-24T21:30:19.936Z"
    },
    {
      "id": "cmn54p09q001e26o6eamdhu51",
      "title": "Así entrenan los nadadores olímpicos",
      "videoUrl": "https://www.youtube.com/embed/yJ_Xtp_NhRs",
      "thumbnailUrl": "",
      "source": "YouTube",
      "sport": "swimming",
      "team": null,
      "minAge": 6,
      "maxAge": 14,
      "durationSeconds": 60,
      "videoType": "youtube_embed",
      "aspectRatio": "16:9",
      "previewGifUrl": null,
      "createdAt": "2026-03-24T21:30:19.935Z"
    }
  ],
  "total": 10,
  "page": 1,
  "totalPages": 2
}