{
  "news": [
    {
      "id": "cmn53aeik000c26ccxlaxp0mq",
      "title": "Roldan: 'Huge gap' in U.S. midfield without Adams",
      "summary": "United States midfielder Cristian Roldan said that upcoming friendlies against Belgium and Portugal are a \"great opportunity\" for the contingent of USMNT midfielders to show what they're capable of.",
      "imageUrl": "",
      "source": "ESPN - Football",
      "sourceUrl": "https://www.espn.com/soccer/story/_/id/48297948/roldan-competitive-us-midfield-huge-gap-adams",
      "sport": "football",
      "team": null,
      "minAge": 6,
      "maxAge": 14,
      "publishedAt": "2026-03-24T21:41:54.000Z",
      "createdAt": "2026-03-24T20:50:58.941Z",
      "rssGuid": "US-EN-48297948",
      "safetyStatus": "approved",
      "safetyReason": "auto-approved: AI unavailable",
      "moderatedAt": "2026-03-24T20:50:58.940Z"
    },
    {
      "id": "cmn54om3b000126zgqgq2u8yh",
      "title": "'I think she's made an obvious error' - Pundits disagree with Chelsea disallowed goal",
      "summary": "Nikita Parris and Ellen White agree that the referee was hasty in disallowing a goal for Chelsea in the Women's Champions League quarter-final for a supposed push by Veerle Buurman on Arsenal's Laia...",
      "imageUrl": "",
      "source": "BBC Sport - Football",
      "sourceUrl": "https://www.bbc.com/sport/football/videos/crr1w0215r4o?at_medium=RSS&at_campaign=rss",
      "sport": "football",
      "team": "Valencia CF",
      "minAge": 6,
      "maxAge": 14,
      "publishedAt": "2026-03-24T21:25:32.000Z",
      "createdAt": "2026-03-24T21:30:01.559Z",
      "rssGuid": "https://www.bbc.com/sport/football/videos/crr1w0215r4o#1",
      "safetyStatus": "approved",
      "safetyReason": "auto-approved: AI unavailable",
      "moderatedAt": "2026-03-24T21:30:01.559Z"
    },
    {
      "id": "cmn54om3x000526zgnf80zhti",
      "title": "'I think she's made an obvious error' - Pundits disagree with Chelsea disallowed goal",
      "summary": "Nikita Parris and Ellen White agree that the referee was hasty in disallowing a goal for Chelsea in the Women's Champions League quarter-final for a supposed push by Veerle Buurman on Arsenal's Laia...",
      "imageUrl": "",
      "source": "BBC Sport - Football",
      "sourceUrl": "https://www.bbc.com/sport/football/videos/crr1w0215r4o?at_medium=RSS&at_campaign=rss",
      "sport": "football",
      "team": "Valencia CF",
      "minAge": 6,
      "maxAge": 14,
      "publishedAt": "2026-03-24T21:25:32.000Z",
      "createdAt": "2026-03-24T21:30:01.581Z",
      "rssGuid": "https://www.bbc.com/sport/football/videos/crr1w0215r4o#17",
      "safetyStatus": "approved",
      "safetyReason": "auto-approved: AI unavailable",
      "moderatedAt": "2026-03-24T21:30:01.581Z"
    },
    {
      "id": "cmn54p0bd000626zghxbauve3",
      "title": "Sólo le faltó la guinda a una fiesta del balonmano en Amate (29-30)",
      "summary": "El Cajasol Sevilla BM Proin compite hasta la última jugada contra el Viveros Herol Nava, de Asobal, pero estuvo menos acertado en el momento decisivo\nDentro de un buen ramillete de individualidades,...",
      "imageUrl": "",
      "source": "Diario de Sevilla - Deportes",
      "sourceUrl": "https://www.diariodesevilla.es/deportes/le-falto-guinda-fiesta-balonmano-sevilla_0_2006287771.html",
      "sport": "football",
      "team": "Sevilla FC",
      "minAge": 6,
      "maxAge": 14,
      "publishedAt": "2026-03-24T21:09:34.000Z",
      "createdAt": "2026-03-24T21:30:19.994Z",
      "rssGuid": "https://www.diariodesevilla.es/deportes/le-falto-guinda-fiesta-balonmano-sevilla_0_2006287771.html",
      "safetyStatus": "approved",
      "safetyReason": "auto-approved: AI unavailable",
      "moderatedAt": "2026-03-24T21:30:19.993Z"
    },
    {
      "id": "cmn549rcr000026et63afdhft",
      "title": "Tonali prefers Italy return - Wednesday's gossip",
      "summary": "Newcastle midfielder Sandro Tonali wants Italy return despite interest from Manchester rivals, Ben White may be on his way out at Arsenal and Bournemouth boss Andoni Iraola eyed by Premier League...",
      "imageUrl": "",
      "source": "BBC Sport - Football",
      "sourceUrl": "https://www.bbc.com/sport/football/articles/cdxkz9p2k0go?at_medium=RSS&at_campaign=rss",
      "sport": "football",
      "team": "Valencia CF",
      "minAge": 6,
      "maxAge": 14,
      "publishedAt": "2026-03-24T21:08:04.000Z",
      "createdAt": "2026-03-24T21:18:28.540Z",
      "rssGuid": "https://www.bbc.com/sport/football/articles/cdxkz9p2k0go#2",
      "safetyStatus": "approved",
      "safetyReason": "auto-approved: AI unavailable",
      "moderatedAt": "2026-03-24T21:18:28.539Z"
    }
  ],
  "total": 1486,
  "page": 1,
  "totalPages": 298
}