{
  "reels": [
    {
      "id": "cmn9gf1yf000j26sglgopx1o4",
      "title": "Take a bow, Sakamoto Kaori. 🙇🙇‍♀️🙇‍♂️ #FigureSkating #WorldFigure",
      "videoUrl": "https://www.youtube.com/embed/flv5AhaAYLI",
      "thumbnailUrl": "https://img.youtube.com/vi/flv5AhaAYLI/mqdefault.jpg",
      "source": "Olympics",
      "sport": "athletics",
      "team": null,
      "minAge": 6,
      "maxAge": 14,
      "durationSeconds": 60,
      "videoType": "youtube_embed",
      "aspectRatio": "16:9",
      "previewGifUrl": null,
      "rssGuid": "yt:video:flv5AhaAYLI",
      "videoSourceId": "cmn96ggkz002m2657umntnalf",
      "safetyStatus": "approved",
      "safetyReason": "auto-approved: AI unavailable",
      "moderatedAt": "2026-03-27T22:09:35.655Z",
      "publishedAt": "2026-03-27T22:06:17.000Z",
      "createdAt": "2026-03-27T22:09:35.656Z"
    },
    {
      "id": "cmn9e5kgj001926ue2m0ow6qb",
      "title": "Football training session",
      "videoUrl": "https://videos.pexels.com/video-files/3191572/3191572-sd_640_360_25fps.mp4",
      "thumbnailUrl": "https://images.pexels.com/videos/3191572/free-video-3191572.jpg?w=400",
      "source": "Pexels",
      "sport": "football",
      "team": null,
      "minAge": 6,
      "maxAge": 14,
      "durationSeconds": 15,
      "videoType": "mp4",
      "aspectRatio": "16:9",
      "previewGifUrl": null,
      "rssGuid": null,
      "videoSourceId": null,
      "safetyStatus": "approved",
      "safetyReason": null,
      "moderatedAt": null,
      "publishedAt": "2026-03-27T21:07:08.531Z",
      "createdAt": "2026-03-27T21:06:13.844Z"
    },
    {
      "id": "cmn9e5kgl001a26uep5k10wsw",
      "title": "Basketball slam dunk",
      "videoUrl": "https://videos.pexels.com/video-files/4761556/4761556-sd_640_360_25fps.mp4",
      "thumbnailUrl": "https://images.pexels.com/videos/4761556/free-video-4761556.jpg?w=400",
      "source": "Pexels",
      "sport": "basketball",
      "team": null,
      "minAge": 6,
      "maxAge": 14,
      "durationSeconds": 12,
      "videoType": "mp4",
      "aspectRatio": "16:9",
      "previewGifUrl": null,
      "rssGuid": null,
      "videoSourceId": null,
      "safetyStatus": "approved",
      "safetyReason": null,
      "moderatedAt": null,
      "publishedAt": "2026-03-27T21:07:08.531Z",
      "createdAt": "2026-03-27T21:06:13.845Z"
    },
    {
      "id": "cmn9e5kgm001b26ue4cgsxcxs",
      "title": "Tennis practice rally",
      "videoUrl": "https://videos.pexels.com/video-files/5067588/5067588-sd_640_360_25fps.mp4",
      "thumbnailUrl": "https://images.pexels.com/videos/5067588/free-video-5067588.jpg?w=400",
      "source": "Pexels",
      "sport": "tennis",
      "team": null,
      "minAge": 6,
      "maxAge": 14,
      "durationSeconds": 18,
      "videoType": "mp4",
      "aspectRatio": "16:9",
      "previewGifUrl": null,
      "rssGuid": null,
      "videoSourceId": null,
      "safetyStatus": "approved",
      "safetyReason": null,
      "moderatedAt": null,
      "publishedAt": "2026-03-27T21:07:08.531Z",
      "createdAt": "2026-03-27T21:06:13.847Z"
    },
    {
      "id": "cmn9e5kgn001c26ueohswgclo",
      "title": "Swimming freestyle technique",
      "videoUrl": "https://videos.pexels.com/video-files/4761480/4761480-sd_640_360_25fps.mp4",
      "thumbnailUrl": "https://images.pexels.com/videos/4761480/free-video-4761480.jpg?w=400",
      "source": "Pexels",
      "sport": "swimming",
      "team": null,
      "minAge": 6,
      "maxAge": 14,
      "durationSeconds": 10,
      "videoType": "mp4",
      "aspectRatio": "16:9",
      "previewGifUrl": null,
      "rssGuid": null,
      "videoSourceId": null,
      "safetyStatus": "approved",
      "safetyReason": null,
      "moderatedAt": null,
      "publishedAt": "2026-03-27T21:07:08.531Z",
      "createdAt": "2026-03-27T21:06:13.848Z"
    }
  ],
  "total": 84,
  "page": 1,
  "totalPages": 17
}