{
  "reels": [
    {
      "id": "cmn9cm1hz000c260fhrp9rlzz",
      "title": "Still not over this. 😌 #Olympics #Athletics",
      "videoUrl": "https://www.youtube.com/embed/di2cPnECW68",
      "thumbnailUrl": "https://img.youtube.com/vi/di2cPnECW68/mqdefault.jpg",
      "source": "Olympics",
      "sport": "athletics",
      "team": null,
      "minAge": 6,
      "maxAge": 14,
      "durationSeconds": 60,
      "videoType": "youtube_embed",
      "aspectRatio": "16:9",
      "previewGifUrl": null,
      "rssGuid": "yt:video:di2cPnECW68",
      "videoSourceId": "cmn96ggkz002m2657umntnalf",
      "safetyStatus": "approved",
      "safetyReason": "auto-approved: AI unavailable",
      "moderatedAt": "2026-03-27T20:23:03.191Z",
      "publishedAt": "2026-03-27T20:01:00.000Z",
      "createdAt": "2026-03-27T20:23:03.192Z"
    },
    {
      "id": "cmn9clo6n0001260f91qosfml",
      "title": "Define aura. #shorts #fcbarcelona #football",
      "videoUrl": "https://www.youtube.com/embed/ySzAJO2A2Qw",
      "thumbnailUrl": "https://img.youtube.com/vi/ySzAJO2A2Qw/mqdefault.jpg",
      "source": "FC Barcelona",
      "sport": "football",
      "team": "Barcelona",
      "minAge": 6,
      "maxAge": 14,
      "durationSeconds": 60,
      "videoType": "youtube_embed",
      "aspectRatio": "16:9",
      "previewGifUrl": null,
      "rssGuid": "yt:video:ySzAJO2A2Qw",
      "videoSourceId": "cmn96ggk400292657buz6v6fk",
      "safetyStatus": "approved",
      "safetyReason": "auto-approved: AI unavailable",
      "moderatedAt": "2026-03-27T20:22:45.935Z",
      "publishedAt": "2026-03-27T20:00:43.000Z",
      "createdAt": "2026-03-27T20:22:45.936Z"
    },
    {
      "id": "cmn9cm1i2000d260fua8dollb",
      "title": "German Bobsleigh Legend 🇩🇪🥈 Francesco Friedrich | Athlete Highlights | #MilanoCortina2026",
      "videoUrl": "https://www.youtube.com/embed/H0V_05Ul5aY",
      "thumbnailUrl": "https://img.youtube.com/vi/H0V_05Ul5aY/mqdefault.jpg",
      "source": "Olympics",
      "sport": "athletics",
      "team": null,
      "minAge": 6,
      "maxAge": 14,
      "durationSeconds": 60,
      "videoType": "youtube_embed",
      "aspectRatio": "16:9",
      "previewGifUrl": null,
      "rssGuid": "yt:video:H0V_05Ul5aY",
      "videoSourceId": "cmn96ggkz002m2657umntnalf",
      "safetyStatus": "approved",
      "safetyReason": "auto-approved: AI unavailable",
      "moderatedAt": "2026-03-27T20:23:03.194Z",
      "publishedAt": "2026-03-27T19:00:10.000Z",
      "createdAt": "2026-03-27T20:23:03.195Z"
    },
    {
      "id": "cmn97zl7t0001264izz3hrf4h",
      "title": "🔵🔴 BARÇA NOTÍCIES (27 de març) L'actualitat en 3 minuts. #shorts #fcbarcelona #news #shortvideo",
      "videoUrl": "https://www.youtube.com/embed/3HU-URB-Zc8",
      "thumbnailUrl": "https://img.youtube.com/vi/3HU-URB-Zc8/mqdefault.jpg",
      "source": "FC Barcelona",
      "sport": "football",
      "team": "Barcelona",
      "minAge": 6,
      "maxAge": 14,
      "durationSeconds": 60,
      "videoType": "youtube_embed",
      "aspectRatio": "16:9",
      "previewGifUrl": null,
      "rssGuid": "yt:video:3HU-URB-Zc8",
      "videoSourceId": "cmn96ggk400292657buz6v6fk",
      "safetyStatus": "approved",
      "safetyReason": "auto-approved: AI unavailable",
      "moderatedAt": "2026-03-27T18:13:37.193Z",
      "publishedAt": "2026-03-27T17:48:56.000Z",
      "createdAt": "2026-03-27T18:13:37.194Z"
    },
    {
      "id": "cmn979xa6002326vszs7o3nt1",
      "title": "🗣️ \"I love Czech racers.\" 🥹",
      "videoUrl": "https://www.youtube.com/embed/4P95OdzE1p8",
      "thumbnailUrl": "https://img.youtube.com/vi/4P95OdzE1p8/mqdefault.jpg",
      "source": "Olympics",
      "sport": "athletics",
      "team": null,
      "minAge": 6,
      "maxAge": 14,
      "durationSeconds": 60,
      "videoType": "youtube_embed",
      "aspectRatio": "16:9",
      "previewGifUrl": null,
      "rssGuid": "yt:video:4P95OdzE1p8",
      "videoSourceId": "cmn96ggkz002m2657umntnalf",
      "safetyStatus": "approved",
      "safetyReason": "auto-approved: AI unavailable",
      "moderatedAt": "2026-03-27T17:53:39.774Z",
      "publishedAt": "2026-03-27T17:38:10.000Z",
      "createdAt": "2026-03-27T17:53:39.774Z"
    },
    {
      "id": "cmn96ihzy001y26vsyoyur31b",
      "title": "Jordan Pickford Saves But They Keep Getting Better 🫨",
      "videoUrl": "https://www.youtube.com/embed/UFrNWCrEzxo",
      "thumbnailUrl": "https://img.youtube.com/vi/UFrNWCrEzxo/mqdefault.jpg",
      "source": "Premier League",
      "sport": "football",
      "team": null,
      "minAge": 6,
      "maxAge": 14,
      "durationSeconds": 60,
      "videoType": "youtube_embed",
      "aspectRatio": "16:9",
      "previewGifUrl": null,
      "rssGuid": "yt:video:UFrNWCrEzxo",
      "videoSourceId": "cmn96ggka002b2657q118ec35",
      "safetyStatus": "approved",
      "safetyReason": "auto-approved: AI unavailable",
      "moderatedAt": "2026-03-27T17:32:20.254Z",
      "publishedAt": "2026-03-27T17:15:00.000Z",
      "createdAt": "2026-03-27T17:32:20.255Z"
    },
    {
      "id": "cmn96hnry001126vs9omi7qtv",
      "title": "His reaction is too real 🤣 (via melocoston/IG)",
      "videoUrl": "https://www.youtube.com/embed/5NTNuLEOpdI",
      "thumbnailUrl": "https://img.youtube.com/vi/5NTNuLEOpdI/mqdefault.jpg",
      "source": "NBA",
      "sport": "basketball",
      "team": null,
      "minAge": 6,
      "maxAge": 14,
      "durationSeconds": 60,
      "videoType": "youtube_embed",
      "aspectRatio": "16:9",
      "previewGifUrl": null,
      "rssGuid": "yt:video:5NTNuLEOpdI",
      "videoSourceId": "cmn96ggkd002d2657g65i9tux",
      "safetyStatus": "approved",
      "safetyReason": "auto-approved: AI unavailable",
      "moderatedAt": "2026-03-27T17:31:41.086Z",
      "publishedAt": "2026-03-27T17:01:02.000Z",
      "createdAt": "2026-03-27T17:31:41.086Z"
    },
    {
      "id": "cmn96hw3i001g26vs05jachze",
      "title": "One for the history books!",
      "videoUrl": "https://www.youtube.com/embed/edqqMGvrnJ0",
      "thumbnailUrl": "https://img.youtube.com/vi/edqqMGvrnJ0/mqdefault.jpg",
      "source": "Olympics",
      "sport": "athletics",
      "team": null,
      "minAge": 6,
      "maxAge": 14,
      "durationSeconds": 60,
      "videoType": "youtube_embed",
      "aspectRatio": "16:9",
      "previewGifUrl": null,
      "rssGuid": "yt:video:edqqMGvrnJ0",
      "videoSourceId": "cmn96ggkz002m2657umntnalf",
      "safetyStatus": "approved",
      "safetyReason": "auto-approved: AI unavailable",
      "moderatedAt": "2026-03-27T17:31:51.870Z",
      "publishedAt": "2026-03-27T15:12:45.000Z",
      "createdAt": "2026-03-27T17:31:51.871Z"
    },
    {
      "id": "cmn96hw3m001h26vs36a1xj4q",
      "title": "Women's Halfpipe Final - Snowboard 🏂🥇 | Milano Cortina 2026 | Full Replays",
      "videoUrl": "https://www.youtube.com/embed/cSEpfCFthoE",
      "thumbnailUrl": "https://img.youtube.com/vi/cSEpfCFthoE/mqdefault.jpg",
      "source": "Olympics",
      "sport": "athletics",
      "team": null,
      "minAge": 6,
      "maxAge": 14,
      "durationSeconds": 60,
      "videoType": "youtube_embed",
      "aspectRatio": "16:9",
      "previewGifUrl": null,
      "rssGuid": "yt:video:cSEpfCFthoE",
      "videoSourceId": "cmn96ggkz002m2657umntnalf",
      "safetyStatus": "approved",
      "safetyReason": "auto-approved: AI unavailable",
      "moderatedAt": "2026-03-27T17:31:51.874Z",
      "publishedAt": "2026-03-27T15:00:41.000Z",
      "createdAt": "2026-03-27T17:31:51.875Z"
    },
    {
      "id": "cmn96hlv4000m26vsa36ci71z",
      "title": "Did You Miss These Premier League Moments So Far In 2026",
      "videoUrl": "https://www.youtube.com/embed/VzPAbcX_lAc",
      "thumbnailUrl": "https://img.youtube.com/vi/VzPAbcX_lAc/mqdefault.jpg",
      "source": "Premier League",
      "sport": "football",
      "team": null,
      "minAge": 6,
      "maxAge": 14,
      "durationSeconds": 60,
      "videoType": "youtube_embed",
      "aspectRatio": "16:9",
      "previewGifUrl": null,
      "rssGuid": "yt:video:VzPAbcX_lAc",
      "videoSourceId": "cmn96ggka002b2657q118ec35",
      "safetyStatus": "approved",
      "safetyReason": "auto-approved: AI unavailable",
      "moderatedAt": "2026-03-27T17:31:38.608Z",
      "publishedAt": "2026-03-27T14:01:00.000Z",
      "createdAt": "2026-03-27T17:31:38.608Z"
    },
    {
      "id": "cmn96hw3q001i26vse5ix76ix",
      "title": "A forever favourite by Guillaume Cizeron and Laurence Fournier Beaudry at #MilanoCortina2026. ❤️‍🔥",
      "videoUrl": "https://www.youtube.com/embed/bH8pm5lsuO8",
      "thumbnailUrl": "https://img.youtube.com/vi/bH8pm5lsuO8/mqdefault.jpg",
      "source": "Olympics",
      "sport": "athletics",
      "team": null,
      "minAge": 6,
      "maxAge": 14,
      "durationSeconds": 60,
      "videoType": "youtube_embed",
      "aspectRatio": "16:9",
      "previewGifUrl": null,
      "rssGuid": "yt:video:bH8pm5lsuO8",
      "videoSourceId": "cmn96ggkz002m2657umntnalf",
      "safetyStatus": "approved",
      "safetyReason": "auto-approved: AI unavailable",
      "moderatedAt": "2026-03-27T17:31:51.878Z",
      "publishedAt": "2026-03-27T13:16:05.000Z",
      "createdAt": "2026-03-27T17:31:51.879Z"
    },
    {
      "id": "cmn96hlv8000n26vsyz1vjo97",
      "title": "Hugo Ekitike Leaves Defenders Behind 🫨",
      "videoUrl": "https://www.youtube.com/embed/pJItumRKneQ",
      "thumbnailUrl": "https://img.youtube.com/vi/pJItumRKneQ/mqdefault.jpg",
      "source": "Premier League",
      "sport": "football",
      "team": null,
      "minAge": 6,
      "maxAge": 14,
      "durationSeconds": 60,
      "videoType": "youtube_embed",
      "aspectRatio": "16:9",
      "previewGifUrl": null,
      "rssGuid": "yt:video:pJItumRKneQ",
      "videoSourceId": "cmn96ggka002b2657q118ec35",
      "safetyStatus": "approved",
      "safetyReason": "auto-approved: AI unavailable",
      "moderatedAt": "2026-03-27T17:31:38.611Z",
      "publishedAt": "2026-03-27T13:15:00.000Z",
      "createdAt": "2026-03-27T17:31:38.612Z"
    },
    {
      "id": "cmn96hw3s001j26vsax38bbtw",
      "title": "Figure Skating ⛸️🥇 Women's Free Skate | Milano Cortina 2026 | Full Replays",
      "videoUrl": "https://www.youtube.com/embed/vGP5ymYxTZg",
      "thumbnailUrl": "https://img.youtube.com/vi/vGP5ymYxTZg/mqdefault.jpg",
      "source": "Olympics",
      "sport": "athletics",
      "team": null,
      "minAge": 6,
      "maxAge": 14,
      "durationSeconds": 60,
      "videoType": "youtube_embed",
      "aspectRatio": "16:9",
      "previewGifUrl": null,
      "rssGuid": "yt:video:vGP5ymYxTZg",
      "videoSourceId": "cmn96ggkz002m2657umntnalf",
      "safetyStatus": "approved",
      "safetyReason": "auto-approved: AI unavailable",
      "moderatedAt": "2026-03-27T17:31:51.880Z",
      "publishedAt": "2026-03-27T13:01:14.000Z",
      "createdAt": "2026-03-27T17:31:51.881Z"
    },
    {
      "id": "cmn96hjol000726vsischexcn",
      "title": "When you can feel the atmosphere 🔥 #shorts #fcbarcelona #football",
      "videoUrl": "https://www.youtube.com/embed/uEfgJWtcRKA",
      "thumbnailUrl": "https://img.youtube.com/vi/uEfgJWtcRKA/mqdefault.jpg",
      "source": "FC Barcelona",
      "sport": "football",
      "team": "Barcelona",
      "minAge": 6,
      "maxAge": 14,
      "durationSeconds": 60,
      "videoType": "youtube_embed",
      "aspectRatio": "16:9",
      "previewGifUrl": null,
      "rssGuid": "yt:video:uEfgJWtcRKA",
      "videoSourceId": "cmn96ggk400292657buz6v6fk",
      "safetyStatus": "approved",
      "safetyReason": "auto-approved: AI unavailable",
      "moderatedAt": "2026-03-27T17:31:35.781Z",
      "publishedAt": "2026-03-27T12:18:48.000Z",
      "createdAt": "2026-03-27T17:31:35.782Z"
    },
    {
      "id": "cmn96hw3w001k26vszkm2meug",
      "title": "Venezuela making history. 🇻🇪",
      "videoUrl": "https://www.youtube.com/embed/OXyZAs-hvZQ",
      "thumbnailUrl": "https://img.youtube.com/vi/OXyZAs-hvZQ/mqdefault.jpg",
      "source": "Olympics",
      "sport": "athletics",
      "team": null,
      "minAge": 6,
      "maxAge": 14,
      "durationSeconds": 60,
      "videoType": "youtube_embed",
      "aspectRatio": "16:9",
      "previewGifUrl": null,
      "rssGuid": "yt:video:OXyZAs-hvZQ",
      "videoSourceId": "cmn96ggkz002m2657umntnalf",
      "safetyStatus": "approved",
      "safetyReason": "auto-approved: AI unavailable",
      "moderatedAt": "2026-03-27T17:31:51.884Z",
      "publishedAt": "2026-03-27T12:17:31.000Z",
      "createdAt": "2026-03-27T17:31:51.884Z"
    },
    {
      "id": "cmn96hw3z001l26vs2y90985c",
      "title": "A side-by-side look at Flora Tabanelli’s epic freeski Big Air Olympic medal moments. 🤩",
      "videoUrl": "https://www.youtube.com/embed/bp0FzezU5w0",
      "thumbnailUrl": "https://img.youtube.com/vi/bp0FzezU5w0/mqdefault.jpg",
      "source": "Olympics",
      "sport": "athletics",
      "team": null,
      "minAge": 6,
      "maxAge": 14,
      "durationSeconds": 60,
      "videoType": "youtube_embed",
      "aspectRatio": "16:9",
      "previewGifUrl": null,
      "rssGuid": "yt:video:bp0FzezU5w0",
      "videoSourceId": "cmn96ggkz002m2657umntnalf",
      "safetyStatus": "approved",
      "safetyReason": "auto-approved: AI unavailable",
      "moderatedAt": "2026-03-27T17:31:51.887Z",
      "publishedAt": "2026-03-27T11:26:28.000Z",
      "createdAt": "2026-03-27T17:31:51.887Z"
    },
    {
      "id": "cmn96hw41001m26vsfyyq9h4h",
      "title": "Curling Mixed Doubles 🥌🥇 Gold Medal Game | Milano Cortina 2026 | Full Replays",
      "videoUrl": "https://www.youtube.com/embed/tILmsD5vV_4",
      "thumbnailUrl": "https://img.youtube.com/vi/tILmsD5vV_4/mqdefault.jpg",
      "source": "Olympics",
      "sport": "athletics",
      "team": null,
      "minAge": 6,
      "maxAge": 14,
      "durationSeconds": 60,
      "videoType": "youtube_embed",
      "aspectRatio": "16:9",
      "previewGifUrl": null,
      "rssGuid": "yt:video:tILmsD5vV_4",
      "videoSourceId": "cmn96ggkz002m2657umntnalf",
      "safetyStatus": "approved",
      "safetyReason": "auto-approved: AI unavailable",
      "moderatedAt": "2026-03-27T17:31:51.889Z",
      "publishedAt": "2026-03-27T11:01:17.000Z",
      "createdAt": "2026-03-27T17:31:51.890Z"
    },
    {
      "id": "cmn96hlva000o26vs0lbdug98",
      "title": "Win, Lose Or Draw, We’ve Got Each Other's Back",
      "videoUrl": "https://www.youtube.com/embed/UbTRgymbBII",
      "thumbnailUrl": "https://img.youtube.com/vi/UbTRgymbBII/mqdefault.jpg",
      "source": "Premier League",
      "sport": "football",
      "team": null,
      "minAge": 6,
      "maxAge": 14,
      "durationSeconds": 60,
      "videoType": "youtube_embed",
      "aspectRatio": "16:9",
      "previewGifUrl": null,
      "rssGuid": "yt:video:UbTRgymbBII",
      "videoSourceId": "cmn96ggka002b2657q118ec35",
      "safetyStatus": "approved",
      "safetyReason": "auto-approved: AI unavailable",
      "moderatedAt": "2026-03-27T17:31:38.614Z",
      "publishedAt": "2026-03-27T11:01:00.000Z",
      "createdAt": "2026-03-27T17:31:38.615Z"
    },
    {
      "id": "cmn96hjoo000826vss8g86aek",
      "title": "🍿 THE MOVIE 🎥  | FC BARCELONA 🔥 Champions League Round of 16 | From Drama to DOMINATION 🔵🔴",
      "videoUrl": "https://www.youtube.com/embed/T7q8mEH1hP8",
      "thumbnailUrl": "https://img.youtube.com/vi/T7q8mEH1hP8/mqdefault.jpg",
      "source": "FC Barcelona",
      "sport": "football",
      "team": "Barcelona",
      "minAge": 6,
      "maxAge": 14,
      "durationSeconds": 60,
      "videoType": "youtube_embed",
      "aspectRatio": "16:9",
      "previewGifUrl": null,
      "rssGuid": "yt:video:T7q8mEH1hP8",
      "videoSourceId": "cmn96ggk400292657buz6v6fk",
      "safetyStatus": "approved",
      "safetyReason": "auto-approved: AI unavailable",
      "moderatedAt": "2026-03-27T17:31:35.783Z",
      "publishedAt": "2026-03-27T10:36:18.000Z",
      "createdAt": "2026-03-27T17:31:35.784Z"
    },
    {
      "id": "cmn96hlvd000p26vs084ryko9",
      "title": "Minteh, Mitoma, Gomez, Kostoulas 🔥",
      "videoUrl": "https://www.youtube.com/embed/s6QHIaAWbCc",
      "thumbnailUrl": "https://img.youtube.com/vi/s6QHIaAWbCc/mqdefault.jpg",
      "source": "Premier League",
      "sport": "football",
      "team": null,
      "minAge": 6,
      "maxAge": 14,
      "durationSeconds": 60,
      "videoType": "youtube_embed",
      "aspectRatio": "16:9",
      "previewGifUrl": null,
      "rssGuid": "yt:video:s6QHIaAWbCc",
      "videoSourceId": "cmn96ggka002b2657q118ec35",
      "safetyStatus": "approved",
      "safetyReason": "auto-approved: AI unavailable",
      "moderatedAt": "2026-03-27T17:31:38.617Z",
      "publishedAt": "2026-03-27T10:01:00.000Z",
      "createdAt": "2026-03-27T17:31:38.618Z"
    }
  ],
  "total": 76,
  "page": 1,
  "totalPages": 4
}