{
  "sources": [
    {
      "id": "cmnac0xid000d2646teuwzymn",
      "name": "AS - Basketball",
      "url": "https://feeds.as.com/mrss-s/pages/as/site/as.com/section/baloncesto/portada/",
      "sport": "basketball",
      "active": true,
      "lastSyncedAt": "2026-04-05T21:05:07.144Z",
      "country": "ES",
      "language": "es",
      "logoUrl": null,
      "description": "Diario AS — basketball section",
      "category": "general",
      "isCustom": false,
      "addedBy": null,
      "newsCount": 181,
      "isStale": false
    },
    {
      "id": "cmnac0xir000v2646wrqxehhd",
      "name": "AS - Cycling",
      "url": "https://feeds.as.com/mrss-s/pages/as/site/as.com/section/ciclismo/portada/",
      "sport": "cycling",
      "active": true,
      "lastSyncedAt": "2026-04-05T21:04:39.463Z",
      "country": "ES",
      "language": "es",
      "logoUrl": null,
      "description": "Diario AS — cycling section",
      "category": "general",
      "isCustom": false,
      "addedBy": null,
      "newsCount": 79,
      "isStale": false
    },
    {
      "id": "cmnac0xi400012646t9twp3bm",
      "name": "AS - Football",
      "url": "https://feeds.as.com/mrss-s/pages/as/site/as.com/section/futbol/portada/",
      "sport": "football",
      "active": true,
      "lastSyncedAt": "2026-04-05T21:05:06.082Z",
      "country": "ES",
      "language": "es",
      "logoUrl": null,
      "description": "Diario AS — football section",
      "category": "general",
      "isCustom": false,
      "addedBy": null,
      "newsCount": 581,
      "isStale": false
    },
    {
      "id": "cmnac0xiv00102646bajr1ncr",
      "name": "AS - Formula 1",
      "url": "https://feeds.as.com/mrss-s/pages/as/site/as.com/section/motor/formula-1/portada/",
      "sport": "formula1",
      "active": true,
      "lastSyncedAt": null,
      "country": "ES",
      "language": "es",
      "logoUrl": null,
      "description": "Diario AS — F1 section",
      "category": "general",
      "isCustom": false,
      "addedBy": null,
      "newsCount": 0,
      "isStale": true
    },
    {
      "id": "cmnac0xii000j26460mu7xmfm",
      "name": "AS - Tennis",
      "url": "https://feeds.as.com/mrss-s/pages/as/site/as.com/section/tenis/portada/",
      "sport": "tennis",
      "active": true,
      "lastSyncedAt": "2026-04-05T21:04:39.094Z",
      "country": "ES",
      "language": "es",
      "logoUrl": null,
      "description": "Diario AS — tennis section",
      "category": "general",
      "isCustom": false,
      "addedBy": null,
      "newsCount": 102,
      "isStale": false
    },
    {
      "id": "cmnac0xix001426468ll7qamt",
      "name": "Autosport",
      "url": "https://www.autosport.com/rss/feed/f1",
      "sport": "formula1",
      "active": true,
      "lastSyncedAt": "2026-04-05T21:03:35.682Z",
      "country": "GB",
      "language": "en",
      "logoUrl": null,
      "description": "Autosport — F1 and motorsport",
      "category": "general",
      "isCustom": false,
      "addedBy": null,
      "newsCount": 75,
      "isStale": false
    },
    {
      "id": "cmnac0xio000r2646i80klco3",
      "name": "BBC Sport - Athletics",
      "url": "https://feeds.bbci.co.uk/sport/athletics/rss.xml",
      "sport": "athletics",
      "active": true,
      "lastSyncedAt": "2026-04-05T21:03:45.203Z",
      "country": "GB",
      "language": "en",
      "logoUrl": null,
      "description": "BBC Sport athletics news",
      "category": "general",
      "isCustom": false,
      "addedBy": null,
      "newsCount": 62,
      "isStale": false
    },
    {
      "id": "cmnac0xig000g264642wcskex",
      "name": "BBC Sport - Basketball",
      "url": "https://feeds.bbci.co.uk/sport/basketball/rss.xml",
      "sport": "basketball",
      "active": true,
      "lastSyncedAt": "2026-04-05T21:04:50.241Z",
      "country": "GB",
      "language": "en",
      "logoUrl": null,
      "description": "BBC Sport basketball news",
      "category": "general",
      "isCustom": false,
      "addedBy": null,
      "newsCount": 35,
      "isStale": false
    },
    {
      "id": "cmnac0xit000y26466dst7cg1",
      "name": "BBC Sport - Cycling",
      "url": "https://feeds.bbci.co.uk/sport/cycling/rss.xml",
      "sport": "cycling",
      "active": true,
      "lastSyncedAt": "2026-04-05T21:04:48.731Z",
      "country": "GB",
      "language": "en",
      "logoUrl": null,
      "description": "BBC Sport cycling news",
      "category": "general",
      "isCustom": false,
      "addedBy": null,
      "newsCount": 31,
      "isStale": false
    },
    {
      "id": "cmnac0xib00092646e8ocamhu",
      "name": "BBC Sport - Football",
      "url": "https://feeds.bbci.co.uk/sport/football/rss.xml",
      "sport": "football",
      "active": true,
      "lastSyncedAt": "2026-04-05T21:04:39.574Z",
      "country": "GB",
      "language": "en",
      "logoUrl": null,
      "description": "BBC Sport football news",
      "category": "general",
      "isCustom": false,
      "addedBy": null,
      "newsCount": 1015,
      "isStale": false
    },
    {
      "id": "cmnac0xiw00122646g1ogtjdg",
      "name": "BBC Sport - Formula 1",
      "url": "https://feeds.bbci.co.uk/sport/formula1/rss.xml",
      "sport": "formula1",
      "active": true,
      "lastSyncedAt": "2026-04-05T21:04:12.044Z",
      "country": "GB",
      "language": "en",
      "logoUrl": null,
      "description": "BBC Sport F1 news",
      "category": "general",
      "isCustom": false,
      "addedBy": null,
      "newsCount": 110,
      "isStale": false
    },
    {
      "id": "cmnac0xik000l2646l6pp00qi",
      "name": "BBC Sport - Tennis",
      "url": "https://feeds.bbci.co.uk/sport/tennis/rss.xml",
      "sport": "tennis",
      "active": true,
      "lastSyncedAt": "2026-04-05T21:03:42.759Z",
      "country": "GB",
      "language": "en",
      "logoUrl": null,
      "description": "BBC Sport tennis news",
      "category": "general",
      "isCustom": false,
      "addedBy": null,
      "newsCount": 85,
      "isStale": false
    },
    {
      "id": "cmnac0xir000w26469n8h9303",
      "name": "CyclingNews",
      "url": "https://www.cyclingnews.com/rss",
      "sport": "cycling",
      "active": true,
      "lastSyncedAt": "2026-04-05T21:03:35.064Z",
      "country": "GB",
      "language": "en",
      "logoUrl": null,
      "description": "CyclingNews — professional road cycling",
      "category": "general",
      "isCustom": false,
      "addedBy": null,
      "newsCount": 173,
      "isStale": false
    },
    {
      "id": "cmnac0xia00082646wocrqsyf",
      "name": "Diario de Sevilla - Deportes",
      "url": "https://www.diariodesevilla.es/rss/deportes/",
      "sport": "football",
      "active": true,
      "lastSyncedAt": "2026-04-05T21:03:49.004Z",
      "country": "ES",
      "language": "es",
      "logoUrl": null,
      "description": "Diario de Sevilla — sección deportes",
      "category": "general",
      "isCustom": false,
      "addedBy": null,
      "newsCount": 144,
      "isStale": false
    },
    {
      "id": "cmnac0xix00132646hdtr4nlq",
      "name": "ESPN - F1",
      "url": "https://www.espn.com/espn/rss/f1/news",
      "sport": "formula1",
      "active": true,
      "lastSyncedAt": "2026-04-05T21:03:43.211Z",
      "country": "US",
      "language": "en",
      "logoUrl": null,
      "description": "ESPN F1 coverage",
      "category": "general",
      "isCustom": false,
      "addedBy": null,
      "newsCount": 42,
      "isStale": false
    },
    {
      "id": "cmnac0xic000b2646co2ja0nr",
      "name": "ESPN - Football",
      "url": "https://www.espn.com/espn/rss/soccer/news",
      "sport": "football",
      "active": true,
      "lastSyncedAt": "2026-04-05T21:04:48.009Z",
      "country": "US",
      "language": "en",
      "logoUrl": null,
      "description": "ESPN soccer/football coverage",
      "category": "general",
      "isCustom": false,
      "addedBy": null,
      "newsCount": 178,
      "isStale": false
    },
    {
      "id": "cmnac0xig000h2646460jisxq",
      "name": "ESPN - NBA",
      "url": "https://www.espn.com/espn/rss/nba/news",
      "sport": "basketball",
      "active": true,
      "lastSyncedAt": "2026-04-05T21:04:00.784Z",
      "country": "US",
      "language": "en",
      "logoUrl": null,
      "description": "ESPN NBA coverage",
      "category": "league",
      "isCustom": false,
      "addedBy": null,
      "newsCount": 79,
      "isStale": false
    },
    {
      "id": "cmnac0xik000m26462mnxqoe3",
      "name": "ESPN - Tennis",
      "url": "https://www.espn.com/espn/rss/tennis/news",
      "sport": "tennis",
      "active": true,
      "lastSyncedAt": "2026-04-05T21:03:34.965Z",
      "country": "US",
      "language": "en",
      "logoUrl": null,
      "description": "ESPN tennis coverage",
      "category": "general",
      "isCustom": false,
      "addedBy": null,
      "newsCount": 28,
      "isStale": false
    },
    {
      "id": "cmnac0xi900072646m2fhi777",
      "name": "El Mundo - Deportes",
      "url": "https://www.elmundo.es/rss/deportes.xml",
      "sport": "football",
      "active": true,
      "lastSyncedAt": "2026-04-05T21:04:52.058Z",
      "country": "ES",
      "language": "es",
      "logoUrl": null,
      "description": "El Mundo — sección deportes",
      "category": "general",
      "isCustom": false,
      "addedBy": null,
      "newsCount": 134,
      "isStale": false
    },
    {
      "id": "cmnac0xi8000626461nftkdwr",
      "name": "El País - Deportes",
      "url": "https://feeds.elpais.com/mrss-s/pages/ep/site/elpais.com/section/deportes/portada/",
      "sport": "football",
      "active": true,
      "lastSyncedAt": "2026-04-05T21:04:51.985Z",
      "country": "ES",
      "language": "es",
      "logoUrl": null,
      "description": "El País — sección deportes del diario generalista",
      "category": "general",
      "isCustom": false,
      "addedBy": null,
      "newsCount": 135,
      "isStale": false
    }
  ],
  "total": 182,
  "page": 1,
  "totalPages": 10
}