{
  "sources": [
    {
      "id": "cmnac0xoo008226462f4x78mb",
      "name": "ACB Liga Endesa",
      "platform": "youtube_channel",
      "feedUrl": "https://www.youtube.com/feeds/videos.xml?channel_id=UCsQKJjv_7sCJ3H5e2ToxsRQ",
      "channelId": "UCsQKJjv_7sCJ3H5e2ToxsRQ",
      "playlistId": null,
      "sport": "basketball",
      "active": true,
      "isCustom": false,
      "addedBy": null,
      "lastSyncedAt": null,
      "createdAt": "2026-03-28T12:54:24.648Z",
      "reelCount": 0,
      "isStale": true
    },
    {
      "id": "cmnac0xop00842646birh810b",
      "name": "ATP Tour",
      "platform": "youtube_channel",
      "feedUrl": "https://www.youtube.com/feeds/videos.xml?channel_id=UCbcxFkd6B9xUU54tGlefpBQ",
      "channelId": "UCbcxFkd6B9xUU54tGlefpBQ",
      "playlistId": null,
      "sport": "tennis",
      "active": true,
      "isCustom": false,
      "addedBy": null,
      "lastSyncedAt": null,
      "createdAt": "2026-03-28T12:54:24.650Z",
      "reelCount": 0,
      "isStale": true
    },
    {
      "id": "cmnac0xop00832646dfska9hp",
      "name": "EuroLeague Basketball",
      "platform": "youtube_channel",
      "feedUrl": "https://www.youtube.com/feeds/videos.xml?channel_id=UCHZVHPyEBBiCN_MWGLvoE6g",
      "channelId": "UCHZVHPyEBBiCN_MWGLvoE6g",
      "playlistId": null,
      "sport": "basketball",
      "active": true,
      "isCustom": false,
      "addedBy": null,
      "lastSyncedAt": null,
      "createdAt": "2026-03-28T12:54:24.649Z",
      "reelCount": 0,
      "isStale": true
    },
    {
      "id": "cmnac0xok007x2646g1o7brq2",
      "name": "FC Barcelona",
      "platform": "youtube_channel",
      "feedUrl": "https://www.youtube.com/feeds/videos.xml?channel_id=UC14UlmYlSNiQCBe9Eookf_A",
      "channelId": "UC14UlmYlSNiQCBe9Eookf_A",
      "playlistId": null,
      "sport": "football",
      "active": true,
      "isCustom": false,
      "addedBy": null,
      "lastSyncedAt": "2026-04-05T21:03:56.937Z",
      "createdAt": "2026-03-28T12:54:24.645Z",
      "reelCount": 60,
      "isStale": false
    },
    {
      "id": "cmnac0xov008d26463hig3dal",
      "name": "Formula 1",
      "platform": "youtube_channel",
      "feedUrl": "https://www.youtube.com/feeds/videos.xml?channel_id=UCB_qr75-ydFVKSz9KnBMLpg",
      "channelId": "UCB_qr75-ydFVKSz9KnBMLpg",
      "playlistId": null,
      "sport": "formula1",
      "active": true,
      "isCustom": false,
      "addedBy": null,
      "lastSyncedAt": null,
      "createdAt": "2026-03-28T12:54:24.656Z",
      "reelCount": 0,
      "isStale": true
    },
    {
      "id": "cmnac0xou008b2646wlq223eq",
      "name": "GCN en Espanol",
      "platform": "youtube_channel",
      "feedUrl": "https://www.youtube.com/feeds/videos.xml?channel_id=UCbgDgpSIjCO3CVQFE5P5XRQ",
      "channelId": "UCbgDgpSIjCO3CVQFE5P5XRQ",
      "playlistId": null,
      "sport": "cycling",
      "active": true,
      "isCustom": false,
      "addedBy": null,
      "lastSyncedAt": null,
      "createdAt": "2026-03-28T12:54:24.654Z",
      "reelCount": 0,
      "isStale": true
    },
    {
      "id": "cmnac0xoj007w2646l0r5mlj0",
      "name": "La Liga Official",
      "platform": "youtube_channel",
      "feedUrl": "https://www.youtube.com/feeds/videos.xml?channel_id=UCIk1SjEGvIaLP01IyjqhUdQ",
      "channelId": "UCIk1SjEGvIaLP01IyjqhUdQ",
      "playlistId": null,
      "sport": "football",
      "active": true,
      "isCustom": false,
      "addedBy": null,
      "lastSyncedAt": null,
      "createdAt": "2026-03-28T12:54:24.643Z",
      "reelCount": 0,
      "isStale": true
    },
    {
      "id": "cmnac0xon00812646b9gcl0tw",
      "name": "NBA",
      "platform": "youtube_channel",
      "feedUrl": "https://www.youtube.com/feeds/videos.xml?channel_id=UCWJ2lWNubArHWmf3FIHbfcQ",
      "channelId": "UCWJ2lWNubArHWmf3FIHbfcQ",
      "playlistId": null,
      "sport": "basketball",
      "active": true,
      "isCustom": false,
      "addedBy": null,
      "lastSyncedAt": "2026-04-05T21:03:33.668Z",
      "createdAt": "2026-03-28T12:54:24.648Z",
      "reelCount": 143,
      "isStale": false
    },
    {
      "id": "cmnac0xot008a2646cnuckjo1",
      "name": "Olympics",
      "platform": "youtube_channel",
      "feedUrl": "https://www.youtube.com/feeds/videos.xml?channel_id=UCTl3QQTvqHFjurroKxexy2Q",
      "channelId": "UCTl3QQTvqHFjurroKxexy2Q",
      "playlistId": null,
      "sport": "athletics",
      "active": true,
      "isCustom": false,
      "addedBy": null,
      "lastSyncedAt": "2026-04-05T21:03:58.093Z",
      "createdAt": "2026-03-28T12:54:24.654Z",
      "reelCount": 76,
      "isStale": false
    },
    {
      "id": "cmnac0xom007z2646w3037jbq",
      "name": "Premier League",
      "platform": "youtube_channel",
      "feedUrl": "https://www.youtube.com/feeds/videos.xml?channel_id=UCG5qGWdu8nIRZqJ_GgDwQ-w",
      "channelId": "UCG5qGWdu8nIRZqJ_GgDwQ-w",
      "playlistId": null,
      "sport": "football",
      "active": true,
      "isCustom": false,
      "addedBy": null,
      "lastSyncedAt": "2026-04-05T21:03:41.203Z",
      "createdAt": "2026-03-28T12:54:24.646Z",
      "reelCount": 44,
      "isStale": false
    },
    {
      "id": "cmnac0xow008f2646lqpbf70m",
      "name": "Premier Padel",
      "platform": "youtube_channel",
      "feedUrl": "https://www.youtube.com/feeds/videos.xml?channel_id=UCW-WYt6vA9DJQHE0zOA8e0A",
      "channelId": "UCW-WYt6vA9DJQHE0zOA8e0A",
      "playlistId": null,
      "sport": "padel",
      "active": true,
      "isCustom": false,
      "addedBy": null,
      "lastSyncedAt": null,
      "createdAt": "2026-03-28T12:54:24.657Z",
      "reelCount": 0,
      "isStale": true
    },
    {
      "id": "cmnac0xol007y2646ysho43vc",
      "name": "Real Madrid CF",
      "platform": "youtube_channel",
      "feedUrl": "https://www.youtube.com/feeds/videos.xml?channel_id=UCWV3obpZVGgJ3j9FVhEjhPQ",
      "channelId": "UCWV3obpZVGgJ3j9FVhEjhPQ",
      "playlistId": null,
      "sport": "football",
      "active": true,
      "isCustom": false,
      "addedBy": null,
      "lastSyncedAt": null,
      "createdAt": "2026-03-28T12:54:24.645Z",
      "reelCount": 0,
      "isStale": true
    },
    {
      "id": "cmnac0xor00862646977eb3wv",
      "name": "Roland Garros",
      "platform": "youtube_channel",
      "feedUrl": "https://www.youtube.com/feeds/videos.xml?channel_id=UCLhFbNomu6fEJ8LAQHFGCFA",
      "channelId": "UCLhFbNomu6fEJ8LAQHFGCFA",
      "playlistId": null,
      "sport": "tennis",
      "active": true,
      "isCustom": false,
      "addedBy": null,
      "lastSyncedAt": null,
      "createdAt": "2026-03-28T12:54:24.651Z",
      "reelCount": 0,
      "isStale": true
    },
    {
      "id": "cmnac0xow008e26460gt9vkz6",
      "name": "Scuderia Ferrari",
      "platform": "youtube_channel",
      "feedUrl": "https://www.youtube.com/feeds/videos.xml?channel_id=UCEsCUOoJoR7Y5c2wuEIo8lQ",
      "channelId": "UCEsCUOoJoR7Y5c2wuEIo8lQ",
      "playlistId": null,
      "sport": "formula1",
      "active": true,
      "isCustom": false,
      "addedBy": null,
      "lastSyncedAt": null,
      "createdAt": "2026-03-28T12:54:24.656Z",
      "reelCount": 0,
      "isStale": true
    },
    {
      "id": "cmnac0xos00882646zd892dgr",
      "name": "SwimSwam Video",
      "platform": "youtube_channel",
      "feedUrl": "https://www.youtube.com/feeds/videos.xml?channel_id=UCxkfAhgF2bXi8rZCmekJJJQ",
      "channelId": "UCxkfAhgF2bXi8rZCmekJJJQ",
      "playlistId": null,
      "sport": "swimming",
      "active": true,
      "isCustom": false,
      "addedBy": null,
      "lastSyncedAt": null,
      "createdAt": "2026-03-28T12:54:24.653Z",
      "reelCount": 0,
      "isStale": true
    },
    {
      "id": "cmnac0xov008c2646rttbzmcx",
      "name": "Tour de France",
      "platform": "youtube_channel",
      "feedUrl": "https://www.youtube.com/feeds/videos.xml?channel_id=UCikVMad1jqoGYIDftpFm2Aw",
      "channelId": "UCikVMad1jqoGYIDftpFm2Aw",
      "playlistId": null,
      "sport": "cycling",
      "active": true,
      "isCustom": false,
      "addedBy": null,
      "lastSyncedAt": null,
      "createdAt": "2026-03-28T12:54:24.655Z",
      "reelCount": 0,
      "isStale": true
    },
    {
      "id": "cmnac0xom008026466hoy79v5",
      "name": "UEFA Champions League",
      "platform": "youtube_channel",
      "feedUrl": "https://www.youtube.com/feeds/videos.xml?channel_id=UCmqtR_Zcb9tVOhSR4GJPOdA",
      "channelId": "UCmqtR_Zcb9tVOhSR4GJPOdA",
      "playlistId": null,
      "sport": "football",
      "active": true,
      "isCustom": false,
      "addedBy": null,
      "lastSyncedAt": null,
      "createdAt": "2026-03-28T12:54:24.647Z",
      "reelCount": 0,
      "isStale": true
    },
    {
      "id": "cmnm0zz8y003t260x1hpj89bh",
      "name": "Validation Test Channel",
      "platform": "youtube_channel",
      "feedUrl": "https://www.youtube.com/feeds/videos.xml?channel_id=ValidationTest1775409538347",
      "channelId": null,
      "playlistId": null,
      "sport": "football",
      "active": true,
      "isCustom": true,
      "addedBy": "cmnm0ziq10039260xf8luez53",
      "lastSyncedAt": null,
      "createdAt": "2026-04-05T17:18:58.354Z",
      "reelCount": 0,
      "isStale": true
    },
    {
      "id": "cmnac0xoq00852646g3qtghmi",
      "name": "WTA Tennis",
      "platform": "youtube_channel",
      "feedUrl": "https://www.youtube.com/feeds/videos.xml?channel_id=UCfgFISz_Dml2FvndRLICm6Q",
      "channelId": "UCfgFISz_Dml2FvndRLICm6Q",
      "playlistId": null,
      "sport": "tennis",
      "active": true,
      "isCustom": false,
      "addedBy": null,
      "lastSyncedAt": null,
      "createdAt": "2026-03-28T12:54:24.650Z",
      "reelCount": 0,
      "isStale": true
    },
    {
      "id": "cmnac0xor00872646i4p6ww52",
      "name": "World Aquatics",
      "platform": "youtube_channel",
      "feedUrl": "https://www.youtube.com/feeds/videos.xml?channel_id=UCOmS8sLY6FjYqFHqYdTYIwg",
      "channelId": "UCOmS8sLY6FjYqFHqYdTYIwg",
      "playlistId": null,
      "sport": "swimming",
      "active": true,
      "isCustom": false,
      "addedBy": null,
      "lastSyncedAt": null,
      "createdAt": "2026-03-28T12:54:24.652Z",
      "reelCount": 0,
      "isStale": true
    }
  ],
  "total": 22,
  "page": 1,
  "totalPages": 2
}